{
    "status": "success",
    "requestId": "d871e2b1-b8f1-476d-9320-3d560181e678",
    "meta": {
        "serviceExecTime": 1902,
        "appName": "chsi",
        "serviceName": "540"
    },
    "result": [
    {
        "d_loc_store_name_chsi": " JB HI-FI MANUKAU #3",
        "d_apple_id_chsi": 284844,
        "d_address_desc_chsi": "CNR OF CAVENDISH & LAMBIE DR’S, MANUKAU, NZ-01-AUCKLAND, 2104"
    },
    {
        "d_loc_store_name_chsi": " LJ MEO LISBOA – AMOREIRAS",
        "d_apple_id_chsi": 2066142,
        "d_address_desc_chsi": "C.C AMOREIRAS, LISBOA, PT-NA-NA, 1070-103"
    },
    {
        "d_loc_store_name_chsi": " LJ MEO LISBOA – AMOREIRAS",
        "d_apple_id_chsi": 2066670,
        "d_address_desc_chsi": "C.C AMOREIRAS, LISBOA, PT-NA-NA, 1070-103"
    },
    {
        "d_loc_store_name_chsi": "\"FOR GDV REPORTING ONLY\"",
        "d_apple_id_chsi": 337065,
        "d_address_desc_chsi": "NO. 35, AIGUO E. ROAD, TAIPEI, TW-NA-NA, 106"
    },
    {
        "d_loc_store_name_chsi": "\"襄阳优尔迅南漳数码店\"",
        "d_apple_id_chsi": 1964626,
        "d_address_desc_chsi": "NO.32 WANSHANLU, XIANGYANG, CN-170-HUBEI, 441500"
    },
    {
        "d_loc_store_name_chsi": "\"遵化宇信华明北路店",
        "d_apple_id_chsi": 1947970,
        "d_address_desc_chsi": "DONGSHUDI5JIAN 1F POST DALOU BEICE, ZUNHUA, CN-060-HEBEI, 064200"
    },
    {
        "d_loc_store_name_chsi": "\"遵化宇信旗舰店",
        "d_apple_id_chsi": 1948005,
        "d_address_desc_chsi": "YOUZHENGDALOUXI BEIERHUANXILU, ZUNHUA, CN-060-HEBEI, 064200"
    },
    {
        "d_loc_store_name_chsi": "#8202 UNC CHAPEL HILL",
        "d_apple_id_chsi": 1558996,
        "d_address_desc_chsi": "207 SOUTH RD STE 1530, CHAPEL HILL, US-NC-NORTH CAROLINA, 27599"
    },
    {
        "d_loc_store_name_chsi": "#열린갤러리@솔로몬",
        "d_apple_id_chsi": 1969595,
        "d_address_desc_chsi": "1F, 23, DONGSEONG-RO, JUNG-GU, DAEGUSI, KR-12-DAEGU, 41937"
    },
    {
        "d_loc_store_name_chsi": "(BONJEOM)",
        "d_apple_id_chsi": 533868,
        "d_address_desc_chsi": "8BAN947-3 YEONGHEUNG3-RI YEONGWOL-EUP, OTHERS, KR-06-GANGWON-DO, 230-805"
    },
    {
        "d_loc_store_name_chsi": "(JU)AITIMOBAIL(BONJEOM)@AITIMOBAIL",
        "d_apple_id_chsi": 1362588,
        "d_address_desc_chsi": "WONILLO 225 (HAKSEONGDONG,SAMSEONG, WONJUSI, KR-06-GANGWON-DO, 26413"
    },
    {
        "d_loc_store_name_chsi": "(JU)CPK@NOWON2HOJEOM",
        "d_apple_id_chsi": 2048614,
        "d_address_desc_chsi": "JONGROGU JONGRO5GA 214-1, SEOUL, KR-10-SEOUL, 36187"
    },
    {
        "d_loc_store_name_chsi": "(JU)DEOBEULMAINDEU@HONGDAEYEOKJEOM",
        "d_apple_id_chsi": 2048586,
        "d_address_desc_chsi": "MAPOGU YANGHWARO 165, SEOUL, KR-10-SEOUL, 36187"
    },
    {
        "d_loc_store_name_chsi": "(JU)DEURIMWOKEOSEUMOBAIL@DEURIMWOKEOSEU_JAMSILJIHASYOPINGSENTEO_1HOJEOM",
        "d_apple_id_chsi": 1524808,
        "d_address_desc_chsi": "SONGPADAERO 567, SEOUL, KR-10-SEOUL, 12345"
    },
    {
        "d_loc_store_name_chsi": "(JU)EIBYUTELLEKOM@EIBYU_DUNJEONJEOM",
        "d_apple_id_chsi": 1524605,
        "d_address_desc_chsi": "CHEOINGU POGOGEUP DUNJEONRI154-3, YONGINSI, KR-07-GYEONGGI-DO, 12345"
    },
    {
        "d_loc_store_name_chsi": "(JU)ESEUPEULLEOSEU@PUNGDONG_PUNGDONGSAGEORI2",
        "d_apple_id_chsi": 1524696,
        "d_address_desc_chsi": "ILSANDONGGU SUPSOKMAEULLO 261, GOYANGSI, KR-07-GYEONGGI-DO, 12345"
    },
    {
        "d_loc_store_name_chsi": "(JU)GEUMATELLEKOMM",
        "d_apple_id_chsi": 1523746,
        "d_address_desc_chsi": "WONHWARO 298, GYEONGJUSI, KR-08-GYEONGSANGBUK-DO, 38147"
    },
    {
        "d_loc_store_name_chsi": "(JU)KEITIEN@MANDEOKJEOM",
        "d_apple_id_chsi": 2048616,
        "d_address_desc_chsi": "JUNGGU NAMPODONG4GA 1-8 1F, BUSAN, KR-11-BUSAN, 36187"
    },
    {
        "d_loc_store_name_chsi": "(JU)KSK@(JU)KSK",
        "d_apple_id_chsi": 1126405,
        "d_address_desc_chsi": "4F, 88-1, JUNGANG-RO, CHUNGJU-SI, KR-04-CHUNGCHEONGBUK-DO, 380-020"
    },
    {
        "d_loc_store_name_chsi": "(JU)KSK@(JU)KSK(BONJEOM)",
        "d_apple_id_chsi": 533883,
        "d_address_desc_chsi": "796-14 SEOKSA-DONG, CHUNCHEON, KR-06-GANGWON-DO, 200-180"
    },
    {
        "d_loc_store_name_chsi": "(JU)MOBAIL JEI@WONHEUNG_DORAEUL",
        "d_apple_id_chsi": 1462224,
        "d_address_desc_chsi": "GYEONGGI GOYANGSI, GOYANG, KR-07-GYEONGGI-DO, 12345"
    },
    {
        "d_loc_store_name_chsi": "(JU)NAEOEJEONGBOTONGSIN@HAPJEONGJEOM",
        "d_apple_id_chsi": 2048587,
        "d_address_desc_chsi": "MAPOGU YANGHWARO 52, SEOUL, KR-10-SEOUL, 36187"
    },
    {
        "d_loc_store_name_chsi": "(JU)NYUBIGINING@GANGNAM1HOJEOM",
        "d_apple_id_chsi": 2048149,
        "d_address_desc_chsi": "GANGNAMGU YEOKSAM1DONG 814-6, SEOUL, KR-10-SEOUL, 36187"
    },
    {
        "d_loc_store_name_chsi": "(JU)PEOSEUTEUAIENSSI@SINDAEBANGYEOKJEOM",
        "d_apple_id_chsi": 2048159,
        "d_address_desc_chsi": "GWANAKGU NANGOKRO 367 102HO, SEOUL, KR-10-SEOUL, 36187"
    },
    {
        "d_loc_store_name_chsi": "(JU)PIAENWOLDEU@SUYUYEOKJEOM",
        "d_apple_id_chsi": 2048154,
        "d_address_desc_chsi": "GANGBUKGU BEON1DONG 446-50, SEOUL, KR-10-SEOUL, 36187"
    },
    {
        "d_loc_store_name_chsi": "(LEGAL REGISTERED ADDRESS)",
        "d_apple_id_chsi": 766450,
        "d_address_desc_chsi": "128 HIGH STREET, CREDITON, GB-DV-DEVON, EX17 3LQ"
    },
    {
        "d_loc_store_name_chsi": "(LEGAL REGISTERED ADDRESS)",
        "d_apple_id_chsi": 1017538,
        "d_address_desc_chsi": "3 COLDBATH SQUARE, LONDON, GB-NA-NA, EC1R 5HL"
    },
    {
        "d_loc_store_name_chsi": "(OM) M.MAISTROVO ĮM. (V093)",
        "d_apple_id_chsi": 1555474,
        "d_address_desc_chsi": "VETERANŲ G. 2, VISAGINAS, LT-NA-NA, 31138"
    },
    {
        "d_loc_store_name_chsi": "(OM) UAB \"AISĖ\" (L086)",
        "d_apple_id_chsi": 1555452,
        "d_address_desc_chsi": "KVIETINIŲ G. 6, GARGŽDAI, LT-NA-NA, 96135"
    },
    {
        "d_loc_store_name_chsi": "(OM) UAB \"AUREMADA\" (L085)",
        "d_apple_id_chsi": 351638,
        "d_address_desc_chsi": "PLUNGĖS G. 25, RIETAVAS, LT-NA-NA, LT-90313"
    },
    {
        "d_loc_store_name_chsi": "(OM)J.NEVERAUSKIENĖS PREKYBOS ĮMONĖ (L020",
        "d_apple_id_chsi": 351636,
        "d_address_desc_chsi": "VYTAUTO G. 1, KRETINGA, LT-NA-NA, 97140"
    },
    {
        "d_loc_store_name_chsi": "(OM)J.ROKO FIRMA \"LIEPA\" (V094)",
        "d_apple_id_chsi": 1555453,
        "d_address_desc_chsi": "TAIKOS G. 11, IGNALINA, LT-NA-NA, 30125"
    },
    {
        "d_loc_store_name_chsi": "(OM)Z.SUTKUVIENĖS ĮM.RAUSVOJI LELIJ (M028)",
        "d_apple_id_chsi": 1555469,
        "d_address_desc_chsi": "V.KUDIRKOS G. 61, ŠAKIAI, LT-NA-NA, 71126"
    },
    {
        "d_loc_store_name_chsi": "(T) ORGANISER WORLD #GP881",
        "d_apple_id_chsi": 449078,
        "d_address_desc_chsi": "289 LATROBE STREET, MELBOURNE, AU-VIC-VICTORIA, 3000"
    },
    {
        "d_loc_store_name_chsi": "(TARIF)",
        "d_apple_id_chsi": 1366354,
        "d_address_desc_chsi": "AL-KHOBAR - KING FAHAD ST. CROSS 8, KHOBAR, SA-NA-NA, 31452"
    },
    {
        "d_loc_store_name_chsi": "(VD DIGITAL) - LUALBO URZÁIZ",
        "d_apple_id_chsi": 829681,
        "d_address_desc_chsi": "URZAIZ, 130, PONTEVEDRA, ES-NA-NA, 36205"
    },
    {
        "d_loc_store_name_chsi": "(VF DIGITAL) - ANFITEL COMUNITEL, S.L - ALHAMA DE MURCIA",
        "d_apple_id_chsi": 829663,
        "d_address_desc_chsi": "AVDA. JUAN CARLOS 1º Nº 48 A, MURCIA, ES-NA-NA, 30840"
    },
    {
        "d_loc_store_name_chsi": "(VF DIGITAL) - ANITEL 2000, S.L - HOSPITALET DE LLOBREGAT",
        "d_apple_id_chsi": 829668,
        "d_address_desc_chsi": "C/ MUSAS 18. LOCAL 2, BARCELONA, ES-NA-NA, 08905"
    },
    {
        "d_loc_store_name_chsi": "(VF DIGITAL) - BITASTEL, S.L.U. - AMURRIO",
        "d_apple_id_chsi": 829686,
        "d_address_desc_chsi": "FRONTÓN, 2, AMURRIO, ES-NA-NA, 01470"
    },
    {
        "d_loc_store_name_chsi": "(VF DIGITAL) - HABLASUR DIGITAL SL",
        "d_apple_id_chsi": 829687,
        "d_address_desc_chsi": "AVDA. DE LA CONSTITUCIÓN, 27, GRANADA, ES-NA-NA, 18014"
    },
    {
        "d_loc_store_name_chsi": "(VF DIGITAL) - HIGH SYSTEM TELECOM, S.L - BARCELONA",
        "d_apple_id_chsi": 829682,
        "d_address_desc_chsi": "AVDA. MISTRAL 17-19 LOCAL 2, BARCELONA, ES-NA-NA, 08015"
    },
    {
        "d_loc_store_name_chsi": "(VF DIGITAL) - IMAGINE PHONE, S.L. - FUENLABRADA",
        "d_apple_id_chsi": 829692,
        "d_address_desc_chsi": "C/ LEGANÉS, 3, MADRID, ES-NA-NA, 28945"
    },
    {
        "d_loc_store_name_chsi": "(VF DIGITAL) - INFORFONPC, S.L - ISLA CRISTINA",
        "d_apple_id_chsi": 829679,
        "d_address_desc_chsi": "C/ GRAN VIA, 32, HUELVA, ES-NA-NA, 21410"
    },
    {
        "d_loc_store_name_chsi": "(VF DIGITAL) - INFORFONPC, S.L - VAZQUEZ LOPEZ",
        "d_apple_id_chsi": 829672,
        "d_address_desc_chsi": "AVDA. ITALIA, 45, HUELVA, ES-NA-NA, 21001"
    },
    {
        "d_loc_store_name_chsi": "(VF DIGITAL) - LINDE LINE S.L. - JAEN",
        "d_apple_id_chsi": 829684,
        "d_address_desc_chsi": "RODRIGUEZ DE LA FUENTE, 7, MARTOS, ES-NA-NA, 23600"
    },
    {
        "d_loc_store_name_chsi": "(VF DIGITAL) - LUALBO AGUILAS",
        "d_apple_id_chsi": 829664,
        "d_address_desc_chsi": "C/ CONDE ARANDA, 2, MURCIA, ES-NA-NA, 30880"
    },
    {
        "d_loc_store_name_chsi": "(VF DIGITAL) - LUALBO ARCCO",
        "d_apple_id_chsi": 829671,
        "d_address_desc_chsi": "C.C. ARCCO AMARA PTA1ª, DONOSTIA, ES-NA-NA, 20011"
    },
    {
        "d_loc_store_name_chsi": "(VF DIGITAL) - LUALBO AVDA. MADRID",
        "d_apple_id_chsi": 829689,
        "d_address_desc_chsi": "AVDA. DE MADRID 190 LOCAL 1º, BARCELONA, ES-NA-NA, 08028"
    },
    {
        "d_loc_store_name_chsi": "(VF DIGITAL) - LUALBO CASTELLON",
        "d_apple_id_chsi": 829665,
        "d_address_desc_chsi": "AVDA. REY DON JAIME, 31, CASTELLÓN DE LA PLANA, ES-NA-NA, 12001"
    },
    {
        "d_loc_store_name_chsi": "(VF DIGITAL) - LUALBO COLLADO VILLALBA",
        "d_apple_id_chsi": 829662,
        "d_address_desc_chsi": "C/ REAL Nº 21-23 LOCAL 4, MADRID, ES-NA-NA, 28400"
    },
    {
        "d_loc_store_name_chsi": "(VF DIGITAL) - LUALBO FERNANDEZ LA TORRE",
        "d_apple_id_chsi": 829693,
        "d_address_desc_chsi": "AVDA FERNANDEZ LATORRE 49, A CORUÑA, ES-NA-NA, 15006"
    },
    {
        "d_loc_store_name_chsi": "(VF DIGITAL) - LUALBO HUELIN",
        "d_apple_id_chsi": 829685,
        "d_address_desc_chsi": "C/ TOMAS ECHEVERRIA, Nº 1 -, MÁLAGA, ES-NA-NA, 29002"
    },
    {
        "d_loc_store_name_chsi": "(VF DIGITAL) - LUALBO MAGIC BADALONA",
        "d_apple_id_chsi": 829675,
        "d_address_desc_chsi": "CALLE DE LA CONCORDIA, 1 - C.C., BARCELONA, ES-NA-NA, 08917"
    },
    {
        "d_loc_store_name_chsi": "(VF DIGITAL) - LUALBO PLAZA DE ESPAÑA",
        "d_apple_id_chsi": 829673,
        "d_address_desc_chsi": "C/ PLAZA DE ESPAÑA, 1, CÁDIZ, ES-NA-NA, 11130"
    },
    {
        "d_loc_store_name_chsi": "(VF DIGITAL) - LUALBO PREMIA DE MAR",
        "d_apple_id_chsi": 829688,
        "d_address_desc_chsi": "GRAN VIA LLUIS COMPANYS, 164, BARCELONA, ES-NA-NA, 08330"
    },
    {
        "d_loc_store_name_chsi": "(VF DIGITAL) - LUALBO SAN VICENTE",
        "d_apple_id_chsi": 829666,
        "d_address_desc_chsi": "CALLE DE SAN VICENTE MÁRTIR, 100, VALENCIA, ES-NA-NA, 46007"
    },
    {
        "d_loc_store_name_chsi": "(VF DIGITAL) - LUALBO TARRAGONA",
        "d_apple_id_chsi": 829669,
        "d_address_desc_chsi": "C/ DEL COMTE RIUS, 13, TARRAGONA, ES-NA-NA, 43007"
    },
    {
        "d_loc_store_name_chsi": "(VF DIGITAL) - LUALBO VITORIA",
        "d_apple_id_chsi": 829678,
        "d_address_desc_chsi": "GORBEA, 19, VITORIA-GASTEIZ, ES-NA-NA, 01012"
    },
    {
        "d_loc_store_name_chsi": "(VF DIGITAL) - NEXTEL FUTURE TELECOM S.L - ALMERIA",
        "d_apple_id_chsi": 829690,
        "d_address_desc_chsi": "AVDA. PIO XII, 8, ALMERÍA, ES-NA-NA, 04800"
    },
    {
        "d_loc_store_name_chsi": "(VF DIGITAL) - PABLO SANCHEZ XXI, S.L. - ALMONTE",
        "d_apple_id_chsi": 829680,
        "d_address_desc_chsi": "AV. DE LA VIRGEN, 56, HUELVA, ES-NA-NA, 21730"
    },
    {
        "d_loc_store_name_chsi": "(VF DIGITAL) - PLATAFORMA EMPR CIUDAD REAL SL - PUERTOLLANO",
        "d_apple_id_chsi": 829695,
        "d_address_desc_chsi": "CALLE DE LA ADUANA, 26, CIUDAD REAL, ES-NA-NA, 13500"
    },
    {
        "d_loc_store_name_chsi": "(VF DIGITAL) - SICOM TELECOMUNIC ALBACETE S.L - CHURRA",
        "d_apple_id_chsi": 829683,
        "d_address_desc_chsi": "AV. DE DON JUAN DE BORBÓN - C.C., MURCIA, ES-NA-NA, 30110"
    },
    {
        "d_loc_store_name_chsi": "(VF DIGITAL) - SICOM TELECOMUNIC ALBACETE S.L - GLORIETA RODOLFO LLOPIS",
        "d_apple_id_chsi": 829667,
        "d_address_desc_chsi": "GLORIETA RODOLFO LLOPIS, 2, ALICANTE, ES-NA-NA, 03010"
    },
    {
        "d_loc_store_name_chsi": "(VF DIGITAL) - TDC 2000 COMUNCAC GLOBALES SRL - MOLLET DEL VALLÉS",
        "d_apple_id_chsi": 829670,
        "d_address_desc_chsi": "BERENGUER III, 18, BARCELONA, ES-NA-NA, 08100"
    },
    {
        "d_loc_store_name_chsi": "(VF DIGITAL) - TECNOSITGES S.L. - SITGES",
        "d_apple_id_chsi": 829676,
        "d_address_desc_chsi": "C/ JESÚS, 17, BARCELONA, ES-NA-NA, 08870"
    },
    {
        "d_loc_store_name_chsi": "(VF DIGITAL) - TELEFONIA DIGITAL SIGLO XXI SL - ESPLUGUES DE LLOBREGAT",
        "d_apple_id_chsi": 829677,
        "d_address_desc_chsi": "C/ MALADETA 55 T3, BARCELONA, ES-NA-NA, 08950"
    },
    {
        "d_loc_store_name_chsi": "(VF DIGITAL) - TODO EN NUEVAS TECNOLOGIAS, S.L. - BURLADA",
        "d_apple_id_chsi": 829691,
        "d_address_desc_chsi": "C/ MAYOR, 29, BURLADA, ES-NA-NA, 31600"
    },
    {
        "d_loc_store_name_chsi": "(VF DIGITAL)) - LUALBO TORRENTE",
        "d_apple_id_chsi": 829674,
        "d_address_desc_chsi": "AVDA. DEL VEDAT, 139, VALENCIA, ES-NA-NA, 46900"
    },
    {
        "d_loc_store_name_chsi": "(VF DIGITAL)) - TRETELCO LORCA S.L. - LORCA",
        "d_apple_id_chsi": 829694,
        "d_address_desc_chsi": "C/ ANDRÉS SEGOVIA, MURCIA, ES-NA-NA, 30880"
    },
    {
        "d_loc_store_name_chsi": "(YU)SEOGWANGYUTONG@SEOGWANGYUTONG_NAMNAEJEOM",
        "d_apple_id_chsi": 1524632,
        "d_address_desc_chsi": "SIMINRO 51(NAMNAEDONG), SUNCHEONSI, KR-03-JEOLLANAM-DO, 12345"
    },
    {
        "d_loc_store_name_chsi": "(유)NYT@고사점",
        "d_apple_id_chsi": 501669,
        "d_address_desc_chsi": "JEONJU-SI WANSAN-GU GOSA-DONG, JEONJU, KR-02-JEOLLABUK-DO, 560-060"
    },
    {
        "d_loc_store_name_chsi": "(유)NYT@인후점",
        "d_apple_id_chsi": 597529,
        "d_address_desc_chsi": "439-3, INHU-DONG 1-GA,DEOKJIN-GU, JEONJU, KR-02-JEOLLABUK-DO, 561-828"
    },
    {
        "d_loc_store_name_chsi": "(유)대성글로벌@어양점",
        "d_apple_id_chsi": 501761,
        "d_address_desc_chsi": "IKSAN-SI EOYANG-DONG, IKSAN, KR-02-JEOLLABUK-DO, 570-210"
    },
    {
        "d_loc_store_name_chsi": "(유)명문@경원점",
        "d_apple_id_chsi": 719429,
        "d_address_desc_chsi": "73-1, GYEONGWON-DONG 1-GA, JEONJU, KR-02-JEOLLABUK-DO, 560-021"
    },
    {
        "d_loc_store_name_chsi": "(유)명문@동산점",
        "d_apple_id_chsi": 1363909,
        "d_address_desc_chsi": "JJOKGUREUM-RO 66, JEONJUSI, KR-02-JEOLLABUK-DO, 54847"
    },
    {
        "d_loc_store_name_chsi": "(유)명문@삼천점",
        "d_apple_id_chsi": 598720,
        "d_address_desc_chsi": "660, SAMCHEON-DONG 1-GA,WANSAN-GU, JEONJU, KR-02-JEOLLABUK-DO, 560-812"
    },
    {
        "d_loc_store_name_chsi": "(유)명문@송천2호점",
        "d_apple_id_chsi": 874939,
        "d_address_desc_chsi": "DUGJINGU SONGCHUNDONG 101-3, JEOLLABUK-DO, KR-02-JEOLLABUK-DO, 561816"
    },
    {
        "d_loc_store_name_chsi": "(유)명문@송천3호점",
        "d_apple_id_chsi": 598080,
        "d_address_desc_chsi": "481-1, JEONJU, KR-02-JEOLLABUK-DO, 561-818"
    },
    {
        "d_loc_store_name_chsi": "(유)믿음정보통신@전북대점",
        "d_apple_id_chsi": 719465,
        "d_address_desc_chsi": "12671-103, DEOKJIN-DONG 1GA, JEONJU, KR-02-JEOLLABUK-DO, 561-191"
    },
    {
        "d_loc_store_name_chsi": "(유)비전에스아이@효자점",
        "d_apple_id_chsi": 501673,
        "d_address_desc_chsi": "JEONJU-SI WANSAN-GU HYOJA-DONG 1-GA, JEONJU, KR-02-JEOLLABUK-DO, 560-241"
    },
    {
        "d_loc_store_name_chsi": "(유)서광유통@구례읍_구례경찰서점",
        "d_apple_id_chsi": 1608507,
        "d_address_desc_chsi": "2 ROTURI ,GURE, OTHERS, KR-03-JEOLLANAM-DO, 57642"
    },
    {
        "d_loc_store_name_chsi": "(유)서광유통@연향동_패션거리3점",
        "d_apple_id_chsi": 1117814,
        "d_address_desc_chsi": "147 YEONHYANGBEONYEONG-GIL, SUNCHEONSI, KR-03-JEOLLANAM-DO, 540-952"
    },
    {
        "d_loc_store_name_chsi": "(유)석경정보@학동1호점",
        "d_apple_id_chsi": 597654,
        "d_address_desc_chsi": "85-25, YEOSU POST OFFICE, HAK-DONG, YEOSU, KR-03-JEOLLANAM-DO, 555-010"
    },
    {
        "d_loc_store_name_chsi": "(유)아이티비@대성점",
        "d_apple_id_chsi": 1742132,
        "d_address_desc_chsi": "DAESEONGDONG 89-2, MOKPO-SI, KR-03-JEOLLANAM-DO, 58722"
    },
    {
        "d_loc_store_name_chsi": "(유)에스에이치에스@광양점",
        "d_apple_id_chsi": 598365,
        "d_address_desc_chsi": "1639-5, JUNG-DONG, GWANGYANG, KR-03-JEOLLANAM-DO, 545-010"
    },
    {
        "d_loc_store_name_chsi": "(유)에스에이치에스@연향점",
        "d_apple_id_chsi": 719412,
        "d_address_desc_chsi": "1323-4, YEONHYANG-DONG, SUNCHEON, KR-03-JEOLLANAM-DO, 540-952"
    },
    {
        "d_loc_store_name_chsi": "(유)엠디@전북대점",
        "d_apple_id_chsi": 1992764,
        "d_address_desc_chsi": "MYEONGRYUN4GIL 14 UCHEUK SANGGA, JEONJUSI, KR-02-JEOLLABUK-DO, 36187"
    },
    {
        "d_loc_store_name_chsi": "(유)연우정보통신@칠성점",
        "d_apple_id_chsi": 598809,
        "d_address_desc_chsi": "901-1, CHILSEONG-RI, GWANGYANG-EUP, GWANGYANG, KR-03-JEOLLANAM-DO, 545-808"
    },
    {
        "d_loc_store_name_chsi": "(유)영산정보통신@평화점",
        "d_apple_id_chsi": 1363655,
        "d_address_desc_chsi": "MOAK-RO 4753, JEONJUSI, KR-02-JEOLLABUK-DO, 55134"
    },
    {
        "d_loc_store_name_chsi": "(유)이루정보통신@구례점",
        "d_apple_id_chsi": 598764,
        "d_address_desc_chsi": "GURYE INTERCITY BUS TERMINAL300, OTHERS, KR-03-JEOLLANAM-DO, 542-803"
    },
    {
        "d_loc_store_name_chsi": "(유)전진@군산대점",
        "d_apple_id_chsi": 1816165,
        "d_address_desc_chsi": "HWANGRYONGRO 3, GUNSANSI, KR-02-JEOLLABUK-DO, 36187"
    },
    {
        "d_loc_store_name_chsi": "(유)전진@영등점",
        "d_apple_id_chsi": 1553985,
        "d_address_desc_chsi": "MUWANGRO13GIL 13  1, IKSANSI, KR-02-JEOLLABUK-DO, 57812"
    },
    {
        "d_loc_store_name_chsi": "(유)제우스텔레콤@산정동_북항2점",
        "d_apple_id_chsi": 1608512,
        "d_address_desc_chsi": "141, CHEONGHO-RO, MOKPOSI, KR-03-JEOLLANAM-DO, 58716"
    },
    {
        "d_loc_store_name_chsi": "(유)진영통신@모현점",
        "d_apple_id_chsi": 1742136,
        "d_address_desc_chsi": "MOHYEONDONG1GA 835 DAERYUKBIL 1F, IKSAN-SI, KR-02-JEOLLABUK-DO, 54654"
    },
    {
        "d_loc_store_name_chsi": "(유)코리아텔레콤@나운동_예스트1점",
        "d_apple_id_chsi": 1117779,
        "d_address_desc_chsi": "77, HANAUN-RO, GUNSANSI, KR-02-JEOLLABUK-DO, 573-864"
    },
    {
        "d_loc_store_name_chsi": "(유)코리아텔레콤@수송동_옥산공원점",
        "d_apple_id_chsi": 1117782,
        "d_address_desc_chsi": "136 SUSONG-RO, GUNSANSI, KR-02-JEOLLABUK-DO, 573-370"
    },
    {
        "d_loc_store_name_chsi": "(유)탑대리점@용해점",
        "d_apple_id_chsi": 598763,
        "d_address_desc_chsi": "773-1, YONGHAE-DONG, MOKPO, KR-03-JEOLLANAM-DO, 530-842"
    },
    {
        "d_loc_store_name_chsi": "(유)하나대리점@연향점",
        "d_apple_id_chsi": 1364585,
        "d_address_desc_chsi": "YEONHYANG 3-RO 2, SUNCHEONSI, KR-03-JEOLLANAM-DO, 57978"
    },
    {
        "d_loc_store_name_chsi": "(유)한마음@김제요촌점",
        "d_apple_id_chsi": 1650705,
        "d_address_desc_chsi": "DONGSEORO 260, GIMJAESI, KR-02-JEOLLABUK-DO, 54394"
    },
    {
        "d_loc_store_name_chsi": "(유)한마음@서외1호점",
        "d_apple_id_chsi": 597706,
        "d_address_desc_chsi": "1-6, SEOOE-RI, BUAN-EUP,BUAN-GU, OTHERS, KR-02-JEOLLABUK-DO, 579-803"
    },
    {
        "d_loc_store_name_chsi": "(유)후모바일@@자유시장",
        "d_apple_id_chsi": 1650726,
        "d_address_desc_chsi": "YONGDANGRO 59, MOKPOSI, KR-03-JEOLLANAM-DO, 37707"
    },
    {
        "d_loc_store_name_chsi": "(인큐) (주) 광컴퍼니@연희동_사러가거리점",
        "d_apple_id_chsi": 1524899,
        "d_address_desc_chsi": "132-43, YEONHUI-DONG, SEOUL, KR-10-SEOUL, 03703"
    },
    {
        "d_loc_store_name_chsi": "(인큐) (주)엠비에스포스원@금곡동_금산잼월드점",
        "d_apple_id_chsi": 1153206,
        "d_address_desc_chsi": "157, GEUMGOK-DONG, BUNDANG-GU, SEONGNAMSI, KR-07-GYEONGGI-DO, 463-805"
    },
    {
        "d_loc_store_name_chsi": "(인큐) DM모바일@종로_종로5가점",
        "d_apple_id_chsi": 1118055,
        "d_address_desc_chsi": "231-10, JONGNO 5-GA,, SEOUL, KR-10-SEOUL, 110-836"
    },
    {
        "d_loc_store_name_chsi": "(인큐) 성연@삼선동_한성대입구역점",
        "d_apple_id_chsi": 1118196,
        "d_address_desc_chsi": "2-1 SAMSEONGYO-RO, SEOUL, KR-10-SEOUL, 136-041"
    },
    {
        "d_loc_store_name_chsi": "(인큐) 주식회사 비앤에프@주엽동_강선사거리점",
        "d_apple_id_chsi": 1152742,
        "d_address_desc_chsi": "HANSOLCOA 108, 72-1 JUYEOP 1-DONG, GOYANGSI, KR-07-GYEONGGI-DO, 411-848"
    },
    {
        "d_loc_store_name_chsi": "(인큐) 주식회사 통큰형제들@내자동_경복궁점",
        "d_apple_id_chsi": 1116448,
        "d_address_desc_chsi": "3 JAHAMUN-RO, SEOUL, KR-10-SEOUL, 110-053"
    },
    {
        "d_loc_store_name_chsi": "(인큐)(주)동동대리점@쌍용동_이마트1점",
        "d_apple_id_chsi": 1117156,
        "d_address_desc_chsi": "7-13 CHADOLDEUL-GIL SEOBUK-GU, CHEONANSI, KR-05-CHUNGCHEONGNAM-DO, 331-945"
    },
    {
        "d_loc_store_name_chsi": "(인큐)(주)신비플러스@구로동_신도림역2점",
        "d_apple_id_chsi": 1524711,
        "d_address_desc_chsi": "89, SAEMAL-RO, GURO-GU, SEOUL, KR-10-SEOUL, 12345"
    },
    {
        "d_loc_store_name_chsi": "(인큐)(주)신세계@화원_비슬로점",
        "d_apple_id_chsi": 1964731,
        "d_address_desc_chsi": "2713, BISEUL-RO, DALSEO-GU, DAEGUSI, KR-12-DAEGU, 50382"
    },
    {
        "d_loc_store_name_chsi": "(인큐)(주)안산모바일@관양1동_관양2점",
        "d_apple_id_chsi": 1352522,
        "d_address_desc_chsi": "1384-28, GWANYANG 1-DONG, DONGAN-GU, ANYANGSI, KR-07-GYEONGGI-DO, 413805"
    },
    {
        "d_loc_store_name_chsi": "(인큐)(주)엠씨@본오3동_로데오5점",
        "d_apple_id_chsi": 1543090,
        "d_address_desc_chsi": "874-10, BONO-DONG, SANGROK-GU, ANSANSI, KR-07-GYEONGGI-DO, 15532"
    },
    {
        "d_loc_store_name_chsi": "(인큐)(주)지엔컴퍼니@두류동_두류네거리점",
        "d_apple_id_chsi": 1462202,
        "d_address_desc_chsi": "488-1, DURYU-DONG, DAEGUSI, KR-12-DAEGU, 12345"
    },
    {
        "d_loc_store_name_chsi": "(인큐)(주)태성정보통신@관양2동_인덕원역점",
        "d_apple_id_chsi": 1352540,
        "d_address_desc_chsi": "14, ANYANGPANGYO-RO, DONGAN-GU, ANYANGSI, KR-07-GYEONGGI-DO, 431810"
    },
    {
        "d_loc_store_name_chsi": "(인큐)JJ 커뮤니티@서신동_중흥아파트점",
        "d_apple_id_chsi": 1118810,
        "d_address_desc_chsi": "105 SEOSIN-RO WANSAN-GU, JEONJUSI, KR-02-JEOLLABUK-DO, 560-822"
    },
    {
        "d_loc_store_name_chsi": "(인큐)JTG컴퍼니@마두동_백마한양아파트점",
        "d_apple_id_chsi": 1118622,
        "d_address_desc_chsi": "200 ILSAN-RO ILSANDONG-GU, GOYANGSI, KR-07-GYEONGGI-DO, 410-810"
    },
    {
        "d_loc_store_name_chsi": "(인큐)㈜후(WHO) @침산동_명성푸르지오점",
        "d_apple_id_chsi": 1652925,
        "d_address_desc_chsi": "153 CHIMSAN-RO, BUKGU, DAEGUSI, KR-12-DAEGU, 12345"
    },
    {
        "d_loc_store_name_chsi": "(인큐)강릉직영점@금학동_대학로점",
        "d_apple_id_chsi": 1350105,
        "d_address_desc_chsi": "GEUMSEONGNO, GANGREUNGSI, KR-06-GANGWON-DO, 210060"
    },
    {
        "d_loc_store_name_chsi": "(인큐)경성대직영점@대연3동_경성대2점",
        "d_apple_id_chsi": 1524901,
        "d_address_desc_chsi": "55-7, DAEYEON-DONG, BUSANSI, KR-11-BUSAN, 48508"
    }
    ]
}
